[
    {
        "event_id":1,
        "organiser":"Wehsing Yuen",
        "title":"Normal Cycling",
        "description":"Just a normal cycling event",
        "location":"Putrajaya",
        "date":"12/1/2021",
        "time":"2:00 PM",
        "price":"Free"
    },
    {
        "event_id":2,
        "organiser":"Anathan Pham",
        "title":"Just Cycling Together",
        "description":"Let's us all cycling together!",
        "location":"Bandar Baru Bangi",
        "date":"15/1/2021",
        "time":"6:00 PM",
        "price":"Free"
    }
]